…
# Establecemos directorio de trabajo
# setwd("R workshop")

#Importar los datos
datos = read_csv("Data/04-Data_types_import_export/Import_CSV.csv")
    
#Muestra las primeras 10 observaciones
datos
```

    ## # A tibble: 103 x 8
    ##       X1    ID Genero  Edad Educacion FollowUP condition PPV_DECLARED
    ##    <int> <int>  <int> <int>     <int>    <int> <chr>            <int>
    ##  1     4 41904      1    47         8       80 PPV_Cond1           99
    ##  2     5 95041      2    21         6       90 PPV_Cond1           99
    ##  3     6 74594      2    29         6       10 PPV_Cond1           99
    ##  4    15 72903      2    27         7       75 PPV_Cond1            1
    ##  5    16 21260      1    29         5       35 PPV_Cond1           24
    ##  6    18 50315      2    28         6       14 PPV_Cond1           99
    ##  7    19 21774      2    27         4        2 PPV_Cond1           99
    ##  8    20 20881      2    55         6       89 PPV_Cond1           99
    ##  9    21 39751      2    28         6        6 PPV_Cond1           99
    ## 10    22 99384      1    46         5        0 PPV_Cond1            1
    ## # ... with 93 more rows
…
# Establecemos directorio de trabajo
# setwd("R workshop")

#Importar los datos
datos = read_excel("Data/04-Data_types_import_export/Import_XLS.xls")
    
#Muestra las primeras 10 observaciones
datos
```

    ## # A tibble: 237 x 13
    ##     name wais_voc boston moral_02i moral_20p minisea_caras eqscore   sex
    ##    <dbl>    <dbl>  <dbl>     <dbl>     <dbl>         <dbl>   <dbl> <dbl>
    ##  1     1       34     28         1         1            29      63     0
    ##  2     2       13     23        NA         0            23      55     0
    ##  3     3       20     16         1         1            26      27     0
    ##  4     4       24     23         1         1            21      33     0
    ##  5     5       20     24         1         1            18      35     1
    ##  6     6        2      3         0         0            23      38    NA
    ##  7     7       13     15         1        NA            19      38     0
    ##  8     8       27     18         1         0            15      42     1
    ##  9     9       37     28         1         0            23      36     0
    ## 10    10       27     24         0         0            20      51     1
    ## # ... with 227 more rows, and 5 more variables: age <dbl>, wais_mp <dbl>,
    ## #   eyes <dbl>, sass_score <dbl>, ifs_score <dbl>
…
# Establecemos directorio de trabajo
# setwd("R workshop")


#Importar los datos
datos = read_sav("Data/04-Data_types_import_export/Import_SAV.sav")
    
#Muestra las primeras 10 observaciones
datos
```

    ## # A tibble: 237 x 13
    ##       ID wais_voc boston moral_02i moral_20p minisea_caras eqscore   sex
    ##    <dbl>    <dbl>  <dbl>     <dbl>     <dbl>         <dbl>   <dbl> <dbl>
    ##  1     1       34     28         1         1            29      63     0
    ##  2     2       13     23        NA         0            23      55     0
    ##  3     3       20     16         1         1            26      27     0
    ##  4     4       24     23         1         1            21      33     0
    ##  5     5       20     24         1         1            18      35     1
    ##  6     6        2      3         0         0            23      38    NA
    ##  7     7       13     15         1        NA            19      38     0
    ##  8     8       27     18         1         0            15      42     1
    ##  9     9       37     28         1         0            23      36     0
    ## 10    10       27     24         0         0            20      51     1
    ## # ... with 227 more rows, and 5 more variables: age <dbl>, wais_mp <dbl>,
    ## #   eyes <dbl>, sass_score <dbl>, ifs_score <dbl>
…
``` r
# Including filenames in a column 
files <- list.files("Data/04-Data_types_import_export/CSVs", pattern = "^0", full.names = TRUE) %>% 
  set_names(basename(.))
full2 <- map_df(files, read_csv, .id = "file")
full2
```

    ## # A tibble: 1,200 x 10
    ##    file   Sex   Priming  trialN Block Adjective Valence Answer Arrow    rT
    ##    <chr>  <chr> <chr>     <int> <chr> <chr>     <chr>   <chr>  <chr> <int>
    ##  1 01.csv male  Collect…      1 we    ofensivo  negati… yes    left    623
    ##  2 01.csv male  Collect…      2 we    resentido negati… no     right  1235
    ##  3 01.csv male  Collect…      3 we    ego�sta   negati… yes    left    335
    ##  4 01.csv male  Collect…      4 we    indiscre… negati… yes    left    355
    ##  5 01.csv male  Collect…      5 we    sumiso    negati… yes    left    618
    ##  6 01.csv male  Collect…      6 we    agradable positi… yes    left    328
    ##  7 01.csv male  Collect…      7 we    clasista  negati… yes    left    348
    ##  8 01.csv male  Collect…      8 we    altruista positi… yes    left   1620
    ##  9 01.csv male  Collect…      9 we    ansioso   negati… yes    left    346
    ## 10 01.csv male  Collect…     10 we    presumido negati… yes    left    778
    ## # ... with 1,190 more rows
…
``` r
# Method 1

# Read and bind all of them
    # We can use the function read_csv or any other
df = lapply(file.list, read_csv) %>% 
  bind_rows(.id = "ID")

df
```

    ## # A tibble: 1,600 x 10
    ##    ID    Sex   Priming   trialN Block Adjective Valence Answer Arrow    rT
    ##    <chr> <chr> <chr>      <int> <chr> <chr>     <chr>   <chr>  <chr> <int>
    ##  1 1     male  Collecti…      1 we    ofensivo  negati… yes    left    623
    ##  2 1     male  Collecti…      2 we    resentido negati… no     right  1235
    ##  3 1     male  Collecti…      3 we    ego�sta   negati… yes    left    335
    ##  4 1     male  Collecti…      4 we    indiscre… negati… yes    left    355
    ##  5 1     male  Collecti…      5 we    sumiso    negati… yes    left    618
    ##  6 1     male  Collecti…      6 we    agradable positi… yes    left    328
    ##  7 1     male  Collecti…      7 we    clasista  negati… yes    left    348
    ##  8 1     male  Collecti…      8 we    altruista positi… yes    left   1620
    ##  9 1     male  Collecti…      9 we    ansioso   negati… yes    left    346
    ## 10 1     male  Collecti…     10 we    presumido negati… yes    left    778
    ## # ... with 1,590 more rows

``` r
# Method 2
df = do.call(rbind, lapply(file.list, function(x) read_csv(x)))
      #%>% select(Rut, Nota, Prueba))) # We can add this if we have a set of common columns

df
```

    ## # A tibble: 1,600 x 9
    ##    Sex   Priming    trialN Block Adjective  Valence  Answer Arrow    rT
    ##    <chr> <chr>       <int> <chr> <chr>      <chr>    <chr>  <chr> <int>
    ##  1 male  Collective      1 we    ofensivo   negative yes    left    623
    ##  2 male  Collective      2 we    resentido  negative no     right  1235
    ##  3 male  Collective      3 we    ego�sta    negative yes    left    335
    ##  4 male  Collective      4 we    indiscreto negative yes    left    355
    ##  5 male  Collective      5 we    sumiso     negative yes    left    618
    ##  6 male  Collective      6 we    agradable  positive yes    left    328
    ##  7 male  Collective      7 we    clasista   negative yes    left    348
    ##  8 male  Collective      8 we    altruista  positive yes    left   1620
    ##  9 male  Collective      9 we    ansioso    negative yes    left    346
    ## 10 male  Collective     10 we    presumido  negative yes    left    778
    ## # ... with 1,590 more rows
…
``` r
if (!require('pacman')) install.packages('pacman'); library('pacman')
p_load(tidyverse, stringr)
```

## Leer y guardar datos

### Leer datos

``` r
raw_data = read_csv("Data/05-Manipulate_data/Manipulate_data_1.csv"); raw_data
```

    ## # A tibble: 30 x 11
    ##       ID `Columna basura`  Sexo  Edad   VI1   VI2   VI3 VI1_t VI2_t VI3_t
    ##    <int> <chr>            <int> <int> <int> <int> <int> <int> <int> <int>
    ##  1     1 xx                   0    26    98    29    19  2398  7432   404
    ##  2     2 yy                   0    33    15    35     4  4893  9918   394
    ##  3     3 xx                   1    37     7     6     3  4099  6518   304
    ##  4     4 yy                   1    19    59    32    14  1792  9476   149
    ##  5     5 zz                   0    29    65    12    17  3280  3438    18
    ##  6     6 xx                   1    34    43    17     7  1350   433   168
    ##  7     7 yy                   0    21     8    32     1  3405  1265   413
    ##  8     8 zz                   0    35    93    12    17  1014  8018    50
    ##  9     9 xx                   0    23    81    42     8   516   548   491
    ## 10    10 yy                   1    19    41    42    18  2232  6105   227
    ## # ... with 20 more rows, and 1 more variable: Composited_var <chr>
…
## Ver output vs asignar output

Cuando usamos `=` o `<-` asignamos lo que ocurre a la derecha a la
variable de la izquierda. En caso contrario, simplemente vemos el
output, pero sin asignarlo.

``` r
# Creamos la variable temp para no sobreescribir raw_data
temp = raw_data
    
# Seleccionamos la columna "Columna basura", pero sin "guardar" el resultado
temp %>% select(`Columna basura`)
```

    ## # A tibble: 30 x 1
    ##    `Columna basura`
    ##    <chr>           
    ##  1 xx              
    ##  2 yy              
    ##  3 xx              
    ##  4 yy              
    ##  5 zz              
    ##  6 xx              
    ##  7 yy              
    ##  8 zz              
    ##  9 xx              
    ## 10 yy              
    ## # ... with 20 more rows

``` r
# temp no ha cambiado
temp
```

    ## # A tibble: 30 x 11
    ##       ID `Columna basura`  Sexo  Edad   VI1   VI2   VI3 VI1_t VI2_t VI3_t
    ##    <int> <chr>            <int> <int> <int> <int> <int> <int> <int> <int>
    ##  1     1 xx                   0    26    98    29    19  2398  7432   404
    ##  2     2 yy                   0    33    15    35     4  4893  9918   394
    ##  3     3 xx                   1    37     7     6     3  4099  6518   304
    ##  4     4 yy                   1    19    59    32    14  1792  9476   149
    ##  5     5 zz                   0    29    65    12    17  3280  3438    18
    ##  6     6 xx                   1    34    43    17     7  1350   433   168
    ##  7     7 yy                   0    21     8    32     1  3405  1265   413
    ##  8     8 zz                   0    35    93    12    17  1014  8018    50
    ##  9     9 xx                   0    23    81    42     8   516   548   491
    ## 10    10 yy                   1    19    41    42    18  2232  6105   227
    ## # ... with 20 more rows, and 1 more variable: Composited_var <chr>

``` r
# Lo mismo de antes pero ahora con "temp =" lo que hace que guardemos el resultado en "temp" 
temp = temp %>% select(`Columna basura`)
  
# temp ha cambiado
temp
```

    ## # A tibble: 30 x 1
    ##    `Columna basura`
    ##    <chr>           
    ##  1 xx              
    ##  2 yy              
    ##  3 xx              
    ##  4 yy              
    ##  5 zz              
    ##  6 xx              
    ##  7 yy              
    ##  8 zz              
    ##  9 xx              
    ## 10 yy              
    ## # ... with 20 more rows
…
``` r
# Filtramos aquellas respuestas que se han dado 2.5 desviaciones tipicas por encima o debajo de la media
raw_data %>% filter(
  VI1 < mean(VI1) + 2.5 * sd(VI1),
  VI1 > mean(VI1) - 2.5 * sd(VI1)
  ) 
```

    ## # A tibble: 30 x 11
    ##       ID `Columna basura`  Sexo  Edad   VI1   VI2   VI3 VI1_t VI2_t VI3_t
    ##    <int> <chr>            <int> <int> <int> <int> <int> <int> <int> <int>
    ##  1     1 xx                   0    26    98    29    19  2398  7432   404
    ##  2     2 yy                   0    33    15    35     4  4893  9918   394
    ##  3     3 xx                   1    37     7     6     3  4099  6518   304
    ##  4     4 yy                   1    19    59    32    14  1792  9476   149
    ##  5     5 zz                   0    29    65    12    17  3280  3438    18
    ##  6     6 xx                   1    34    43    17     7  1350   433   168
    ##  7     7 yy                   0    21     8    32     1  3405  1265   413
    ##  8     8 zz                   0    35    93    12    17  1014  8018    50
    ##  9     9 xx                   0    23    81    42     8   516   548   491
    ## 10    10 yy                   1    19    41    42    18  2232  6105   227
    ## # ... with 20 more rows, and 1 more variable: Composited_var <chr>
…
### Ordenar DB

``` r
#raw_data %>% arrange(desc(Edad))
raw_data %>% arrange(Edad, Sexo) 
```

    ## # A tibble: 30 x 11
    ##       ID `Columna basura`  Sexo  Edad   VI1   VI2   VI3 VI1_t VI2_t VI3_t
    ##    <int> <chr>            <int> <int> <int> <int> <int> <int> <int> <int>
    ##  1     4 yy                   1    19    59    32    14  1792  9476   149
    ##  2    10 yy                   1    19    41    42    18  2232  6105   227
    ##  3    13 yy                   0    20    24    41     0  4680   192   195
    ##  4    28 yy                   0    20    25     2     2   964  1484    35
    ##  5    15 xx                   1    20    61     1    15  2140  3305   168
    ##  6    18 xx                   1    20    65     5    13  4846  3906    13
    ##  7     7 yy                   0    21     8    32     1  3405  1265   413
    ##  8    26 zz                   0    21    83    26     6  3305  6470   318
    ##  9    16 yy                   1    21    99     3    16   679  7278   401
    ## 10    27 xx                   1    22    68    44     2   537  6455    88
    ## # ... with 20 more rows, and 1 more variable: Composited_var <chr>

### Seleccionar variables

``` r
# Seleccionamos varias columnas
raw_data %>% select(ID, Sexo, Edad, VI1)
```

    ## # A tibble: 30 x 4
    ##       ID  Sexo  Edad   VI1
    ##    <int> <int> <int> <int>
    ##  1     1     0    26    98
    ##  2     2     0    33    15
    ##  3     3     1    37     7
    ##  4     4     1    19    59
    ##  5     5     0    29    65
    ##  6     6     1    34    43
    ##  7     7     0    21     8
    ##  8     8     0    35    93
    ##  9     9     0    23    81
    ## 10    10     1    19    41
    ## # ... with 20 more rows

``` r
# Podemos usar el número de columna    
raw_data %>% select(1,3:4)
```

    ## # A tibble: 30 x 3
    ##       ID  Sexo  Edad
    ##    <int> <int> <int>
    ##  1     1     0    26
    ##  2     2     0    33
    ##  3     3     1    37
    ##  4     4     1    19
    ##  5     5     0    29
    ##  6     6     1    34
    ##  7     7     0    21
    ##  8     8     0    35
    ##  9     9     0    23
    ## 10    10     1    19
    ## # ... with 20 more rows
…
Nosotros usaremos la versión para todos los públicos, en la que
simplemente indicaremos un fragmento de texto que buscar en los títulos
de las columnas de nuestro data frame.

``` r
# Seleccionamos las columnas que nos interesan usando matches()
datos = raw_data %>% select(ID, Sexo, Edad, matches("VI"))
   
#Vemos datos
datos
```

    ## # A tibble: 30 x 9
    ##       ID  Sexo  Edad   VI1   VI2   VI3 VI1_t VI2_t VI3_t
    ##    <int> <int> <int> <int> <int> <int> <int> <int> <int>
    ##  1     1     0    26    98    29    19  2398  7432   404
    ##  2     2     0    33    15    35     4  4893  9918   394
    ##  3     3     1    37     7     6     3  4099  6518   304
    ##  4     4     1    19    59    32    14  1792  9476   149
    ##  5     5     0    29    65    12    17  3280  3438    18
    ##  6     6     1    34    43    17     7  1350   433   168
    ##  7     7     0    21     8    32     1  3405  1265   413
    ##  8     8     0    35    93    12    17  1014  8018    50
    ##  9     9     0    23    81    42     8   516   548   491
    ## 10    10     1    19    41    42    18  2232  6105   227
    ## # ... with 20 more rows

### Renombrar variables

``` r
# Renombramos columna X. En este caso, como el nombre de columna contiene espacios, tenemos que usar ``
raw_data %>% rename(Columna_basura = `Columna basura`)
```

    ## # A tibble: 30 x 11
    ##       ID Columna_basura  Sexo  Edad   VI1   VI2   VI3 VI1_t VI2_t VI3_t
    ##    <int> <chr>          <int> <int> <int> <int> <int> <int> <int> <int>
    ##  1     1 xx                 0    26    98    29    19  2398  7432   404
    ##  2     2 yy                 0    33    15    35     4  4893  9918   394
    ##  3     3 xx                 1    37     7     6     3  4099  6518   304
    ##  4     4 yy                 1    19    59    32    14  1792  9476   149
    ##  5     5 zz                 0    29    65    12    17  3280  3438    18
    ##  6     6 xx                 1    34    43    17     7  1350   433   168
    ##  7     7 yy                 0    21     8    32     1  3405  1265   413
    ##  8     8 zz                 0    35    93    12    17  1014  8018    50
    ##  9     9 xx                 0    23    81    42     8   516   548   491
    ## 10    10 yy                 1    19    41    42    18  2232  6105   227
    ## # ... with 20 more rows, and 1 more variable: Composited_var <chr>

**Renombrado avanzado**

Rename using the position of the
column

``` r
raw_data %>% rename(second_column = !!names(.[2]), first_column = !!names(.[1]))
```

    ## # A tibble: 30 x 11
    ##    first_column second_column  Sexo  Edad   VI1   VI2   VI3 VI1_t VI2_t
    ##           <int> <chr>         <int> <int> <int> <int> <int> <int> <int>
    ##  1            1 xx                0    26    98    29    19  2398  7432
    ##  2            2 yy                0    33    15    35     4  4893  9918
    ##  3            3 xx                1    37     7     6     3  4099  6518
    ##  4            4 yy                1    19    59    32    14  1792  9476
    ##  5            5 zz                0    29    65    12    17  3280  3438
    ##  6            6 xx                1    34    43    17     7  1350   433
    ##  7            7 yy                0    21     8    32     1  3405  1265
    ##  8            8 zz                0    35    93    12    17  1014  8018
    ##  9            9 xx                0    23    81    42     8   516   548
    ## 10           10 yy                1    19    41    42    18  2232  6105
    ## # ... with 20 more rows, and 2 more variables: VI3_t <int>,
    ## #   Composited_var <chr>

### Separate contents of a single variable

``` r
raw_data %>% separate(Composited_var, c("First", "Second"), sep = "_")
```

    ## # A tibble: 30 x 12
    ##       ID `Columna basura`  Sexo  Edad   VI1   VI2   VI3 VI1_t VI2_t VI3_t
    ##    <int> <chr>            <int> <int> <int> <int> <int> <int> <int> <int>
    ##  1     1 xx                   0    26    98    29    19  2398  7432   404
    ##  2     2 yy                   0    33    15    35     4  4893  9918   394
    ##  3     3 xx                   1    37     7     6     3  4099  6518   304
    ##  4     4 yy                   1    19    59    32    14  1792  9476   149
    ##  5     5 zz                   0    29    65    12    17  3280  3438    18
    ##  6     6 xx                   1    34    43    17     7  1350   433   168
    ##  7     7 yy                   0    21     8    32     1  3405  1265   413
    ##  8     8 zz                   0    35    93    12    17  1014  8018    50
    ##  9     9 xx                   0    23    81    42     8   516   548   491
    ## 10    10 yy                   1    19    41    42    18  2232  6105   227
    ## # ... with 20 more rows, and 2 more variables: First <chr>, Second <chr>
…
