R - Statistics Manual
…
if (!require('pacman')) install.packages('pacman'); library('pacman')
p_load(tidyverse, yarrr, readxl, stringr, afex) 

Import data

We use the following dataset.

#Import to variable "datos"
datos = read_excel("Data/08-Data_analysis/ANOVA_repeated_measures.xlsx") %>% 
  dplyr::mutate(ID = 1:n())

datos

## # A tibble: 29 x 9
##          ENDObch       ENDOacm       ENDObcm       ENDOach        EXObch
##            <dbl>         <dbl>         <dbl>         <dbl>         <dbl>
##  1 -0.0134618198  0.0079598110 -1.724309e-03  0.0001241273  0.0033291737
##  2 -0.0007571547  0.0001350424  1.087823e-02 -0.0044011702  0.0225063299
##  3 -0.0021596171  0.0018874678  1.396156e-03  0.0002438996 -0.0009685716
##  4 -0.0021261532  0.0017017525  7.949985e-03 -0.0009560923  0.0019598747
##  5 -0.0014105901 -0.0009019787  1.158694e-03 -0.0006908299 -0.0008552055
##  6  0.0031665364 -0.0016276746  1.400152e-03 -0.0035374637 -0.0017644341
##  7 -0.0034358999 -0.0005719841 -7.021927e-03  0.0033983457  0.0109482298
##  8 -0.0038080731  0.0054854822  4.322780e-04 -0.0033633460  0.0098447537
##  9 -0.0003044510 -0.0004639236 -1.068726e-02  0.0075849477 -0.0046718045
## 10 -0.0016039516  0.0008493854  6.954175e-05  0.0002653357  0.0042829250
## # ... with 19 more rows, and 4 more variables: EXOacm <dbl>, EXObcm <dbl>,
## #   EXOach <dbl>, ID <int>
…
datos_long

## # A tibble: 232 x 6
##       ID Condicion            VD    VI1    VI2    VI3
##    <int>    <fctr>         <dbl> <fctr> <fctr> <fctr>
##  1     1   ENDObch -0.0134618198    END     bc      h
##  2     2   ENDObch -0.0007571547    END     bc      h
##  3     3   ENDObch -0.0021596171    END     bc      h
##  4     4   ENDObch -0.0021261532    END     bc      h
##  5     5   ENDObch -0.0014105901    END     bc      h
##  6     6   ENDObch  0.0031665364    END     bc      h
##  7     7   ENDObch -0.0034358999    END     bc      h
##  8     8   ENDObch -0.0038080731    END     bc      h
##  9     9   ENDObch -0.0003044510    END     bc      h
## 10    10   ENDObch -0.0016039516    END     bc      h
## # ... with 222 more rows
…
