R - Statistics Manual
…
# Cargamos librerias
if (!require('pacman')) install.packages('pacman'); library('pacman')
p_load(tidyverse)

# Establecemos directorio de trabajo
# setwd("R workshop")

#Importar los datos
datos = read_csv("Data/04-Data_types_import_export/Import_CSV.csv")
    
#Muestra las primeras 10 observaciones
datos

## # A tibble: 103 x 8
##       X1    ID Genero  Edad Educacion FollowUP condition PPV_DECLARED
##    <int> <int>  <int> <int>     <int>    <int> <chr>            <int>
##  1     4 41904      1    47         8       80 PPV_Cond1           99
##  2     5 95041      2    21         6       90 PPV_Cond1           99
##  3     6 74594      2    29         6       10 PPV_Cond1           99
##  4    15 72903      2    27         7       75 PPV_Cond1            1
##  5    16 21260      1    29         5       35 PPV_Cond1           24
##  6    18 50315      2    28         6       14 PPV_Cond1           99
##  7    19 21774      2    27         4        2 PPV_Cond1           99
##  8    20 20881      2    55         6       89 PPV_Cond1           99
##  9    21 39751      2    28         6        6 PPV_Cond1           99
## 10    22 99384      1    46         5        0 PPV_Cond1            1
## # ... with 93 more rows
…
# Cargamos librerias
if (!require('pacman')) install.packages('pacman'); library('pacman')
p_load(readxl)

# Establecemos directorio de trabajo
# setwd("R workshop")

#Importar los datos
datos = read_excel("Data/04-Data_types_import_export/Import_XLS.xls")
    
#Muestra las primeras 10 observaciones
datos

## # A tibble: 237 x 13
##     name wais_voc boston moral_02i moral_20p minisea_caras eqscore   sex
##    <dbl>    <dbl>  <dbl>     <dbl>     <dbl>         <dbl>   <dbl> <dbl>
##  1  1.00    34.0   28.0       1.00      1.00          29.0    63.0  0   
##  2  2.00    13.0   23.0      NA         0             23.0    55.0  0   
##  3  3.00    20.0   16.0       1.00      1.00          26.0    27.0  0   
##  4  4.00    24.0   23.0       1.00      1.00          21.0    33.0  0   
##  5  5.00    20.0   24.0       1.00      1.00          18.0    35.0  1.00
##  6  6.00     2.00   3.00      0         0             23.0    38.0 NA   
##  7  7.00    13.0   15.0       1.00     NA             19.0    38.0  0   
##  8  8.00    27.0   18.0       1.00      0             15.0    42.0  1.00
##  9  9.00    37.0   28.0       1.00      0             23.0    36.0  0   
## 10 10.0     27.0   24.0       0         0             20.0    51.0  1.00
## # ... with 227 more rows, and 5 more variables: age <dbl>, wais_mp <dbl>,
## #   eyes <dbl>, sass_score <dbl>, ifs_score <dbl>
…
# Cargamos librerias
if (!require('pacman')) install.packages('pacman'); library('pacman')
p_load(haven)

# Establecemos directorio de trabajo
# setwd("R workshop")

#Importar los datos
datos = read_sav("Data/04-Data_types_import_export/Import_SAV.sav")
    
#Muestra las primeras 10 observaciones
datos

## # A tibble: 237 x 13
##       ID wais_voc boston moral_02i moral_20p minisea_caras eqscore   sex
##    <dbl>    <dbl>  <dbl>     <dbl>     <dbl>         <dbl>   <dbl> <dbl>
##  1  1.00    34.0   28.0       1.00      1.00          29.0    63.0  0   
##  2  2.00    13.0   23.0      NA         0             23.0    55.0  0   
##  3  3.00    20.0   16.0       1.00      1.00          26.0    27.0  0   
##  4  4.00    24.0   23.0       1.00      1.00          21.0    33.0  0   
##  5  5.00    20.0   24.0       1.00      1.00          18.0    35.0  1.00
##  6  6.00     2.00   3.00      0         0             23.0    38.0 NA   
##  7  7.00    13.0   15.0       1.00     NA             19.0    38.0  0   
##  8  8.00    27.0   18.0       1.00      0             15.0    42.0  1.00
##  9  9.00    37.0   28.0       1.00      0             23.0    36.0  0   
## 10 10.0     27.0   24.0       0         0             20.0    51.0  1.00
## # ... with 227 more rows, and 5 more variables: age <dbl>, wais_mp <dbl>,
## #   eyes <dbl>, sass_score <dbl>, ifs_score <dbl>
…
# Including filenames in a column 
files <- list.files("Data/04-Data_types_import_export/CSVs", pattern = "^0", full.names = TRUE) %>% 
  set_names(basename(.))
full2 <- map_df(files, read_csv, .id = "file")
full2

## # A tibble: 1,200 x 10
##    file   Sex   Priming  trialN Block Adjective Valence Answer Arrow    rT
##    <chr>  <chr> <chr>     <int> <chr> <chr>     <chr>   <chr>  <chr> <int>
##  1 01.csv male  Collect…      1 we    ofensivo  negati… yes    left    623
##  2 01.csv male  Collect…      2 we    resentido negati… no     right  1235
##  3 01.csv male  Collect…      3 we    ego�sta   negati… yes    left    335
##  4 01.csv male  Collect…      4 we    indiscre… negati… yes    left    355
##  5 01.csv male  Collect…      5 we    sumiso    negati… yes    left    618
##  6 01.csv male  Collect…      6 we    agradable positi… yes    left    328
##  7 01.csv male  Collect…      7 we    clasista  negati… yes    left    348
##  8 01.csv male  Collect…      8 we    altruista positi… yes    left   1620
##  9 01.csv male  Collect…      9 we    ansioso   negati… yes    left    346
## 10 01.csv male  Collect…     10 we    presumido negati… yes    left    778
## # ... with 1,190 more rows
…
## [1] "Data/04-Data_types_import_export/CSVs/01.csv"  
## [2] "Data/04-Data_types_import_export/CSVs/02.csv"  
## [3] "Data/04-Data_types_import_export/CSVs/03.csv"  
## [4] "Data/04-Data_types_import_export/CSVs/CSVs.zip"

# Method 1

# Read and bind all of them
    # We can use the function read_csv or any other
df = lapply(file.list, read_csv) %>% 
  bind_rows(.id = "ID")

df

## # A tibble: 1,600 x 10
##    ID    Sex   Priming   trialN Block Adjective Valence Answer Arrow    rT
##    <chr> <chr> <chr>      <int> <chr> <chr>     <chr>   <chr>  <chr> <int>
##  1 1     male  Collecti…      1 we    ofensivo  negati… yes    left    623
##  2 1     male  Collecti…      2 we    resentido negati… no     right  1235
##  3 1     male  Collecti…      3 we    ego�sta   negati… yes    left    335
##  4 1     male  Collecti…      4 we    indiscre… negati… yes    left    355
##  5 1     male  Collecti…      5 we    sumiso    negati… yes    left    618
##  6 1     male  Collecti…      6 we    agradable positi… yes    left    328
##  7 1     male  Collecti…      7 we    clasista  negati… yes    left    348
##  8 1     male  Collecti…      8 we    altruista positi… yes    left   1620
##  9 1     male  Collecti…      9 we    ansioso   negati… yes    left    346
## 10 1     male  Collecti…     10 we    presumido negati… yes    left    778
## # ... with 1,590 more rows

# Method 2
df = do.call(rbind, lapply(file.list, function(x) read_csv(x)))
      #%>% select(Rut, Nota, Prueba))) # We can add this if we have a set of common columns

df

## # A tibble: 1,600 x 9
##    Sex   Priming    trialN Block Adjective  Valence  Answer Arrow    rT
##    <chr> <chr>       <int> <chr> <chr>      <chr>    <chr>  <chr> <int>
##  1 male  Collective      1 we    ofensivo   negative yes    left    623
##  2 male  Collective      2 we    resentido  negative no     right  1235
##  3 male  Collective      3 we    ego�sta    negative yes    left    335
##  4 male  Collective      4 we    indiscreto negative yes    left    355
##  5 male  Collective      5 we    sumiso     negative yes    left    618
##  6 male  Collective      6 we    agradable  positive yes    left    328
##  7 male  Collective      7 we    clasista   negative yes    left    348
##  8 male  Collective      8 we    altruista  positive yes    left   1620
##  9 male  Collective      9 we    ansioso    negative yes    left    346
## 10 male  Collective     10 we    presumido  negative yes    left    778
## # ... with 1,590 more rows
…
