R - Statistics Manual - CSCN
…
#Muestra las primeras 10 observaciones
df

## # A tibble: 237 x 10
##       Id AccuracyIz Moral   Tom Empatia  Sexo  Edad AccuracyDer AdapSoc
##    <int>      <int> <int> <int>   <int> <int> <int>       <int>   <int>
##  1     1         34     1    29      63     0    62          13      40
##  2     2         13    NA    23      55     0    53           8      43
##  3     3         20     1    26      27     0    18          14      38
##  4     4         24     1    21      33     0    40          14      48
##  5     5         20     1    18      35     1    65          15      48
##  6     6          2     0    23      38    NA    NA          12      35
##  7     7         13     1    19      38     0    56           5      16
##  8     8         27     1    15      42     1    70           8      41
##  9     9         37     1    23      36     0    43          23      38
## 10    10         27     0    20      51     1    52           9      24
## # ... with 227 more rows, and 1 more variables: FunEjec <int>
…
#Importar dataframe
df = read_csv("Data/ANOVA/data_aov1.csv")

## Parsed with column specification:
## cols(
##   Metodo = col_integer(),
##   Nota = col_integer()
## )

#Muestra las primeras 10 observaciones
df

## # A tibble: 30 x 2
##    Metodo  Nota
##     <int> <int>
##  1      1    50
##  2      1    45
##  3      1    48
##  4      1    47
##  5      1    45
##  6      1    49
##  7      1    50
##  8      1    54
##  9      1    57
## 10      1    55
## # ... with 20 more rows
…
#Importar dataframe
df = read_csv("Data/ANOVA/data_aov2.csv")

## Parsed with column specification:
## cols(
##   Sexo = col_integer(),
##   Alcohol = col_integer(),
##   Atractivo = col_integer()
## )

#Muestra las primeras 10 observaciones
df

## # A tibble: 32 x 3
##     Sexo Alcohol Atractivo
##    <int>   <int>     <int>
##  1     1       0        65
##  2     1       0        70
##  3     1       0        60
##  4     1       0        60
##  5     1       0        60
##  6     1       0        55
##  7     1       0        60
##  8     1       0        55
##  9     1       1        55
## 10     1       1        65
## # ... with 22 more rows
…
