R - Statistics Manual
…
# Desencriptamos
data = data %>% 
  dplyr::rowwise() %>% 
  mutate(RUT_Decripted = decode(RUT_Encripted, h))

## Warning in if (hash_str == "") stop("decode: invalid hashid"): the
## condition has length > 1 and only the first element will be used

# Mostramos los resultados
data %>% select(RUT_Encripted, RUT_Decripted, RUT)

## Source: local data frame [100 x 3]
## Groups: <by row>
## 
## # A tibble: 100 x 3
##                                                                  RUT_Encripted
##  *                                                                       <chr>
##  1 kB3YkhnpJ2WCB7aDLh5knmJcN7oetq9xPmIv59o8C53r8tPR7kzcXqoWXCVrPEeTWyNlLuneaXJ
##  2 kB3YkhnpJ2WCB7aDLh5knmJcN7oetq9xPmIv59o8C53r8tPR7kzcXqoWXCVrPEeTWyNlLuneaXJ
##  3 kB3YkhnpJ2WCB7aDLh5knmJcN7oetq9xPmIv59o8C53r8tPR7kzcXqoWXCVrPEeTWyNlLuneaXJ
##  4 kB3YkhnpJ2WCB7aDLh5knmJcN7oetq9xPmIv59o8C53r8tPR7kzcXqoWXCVrPEeTWyNlLuneaXJ
##  5 kB3YkhnpJ2WCB7aDLh5knmJcN7oetq9xPmIv59o8C53r8tPR7kzcXqoWXCVrPEeTWyNlLuneaXJ
##  6 kB3YkhnpJ2WCB7aDLh5knmJcN7oetq9xPmIv59o8C53r8tPR7kzcXqoWXCVrPEeTWyNlLuneaXJ
##  7 kB3YkhnpJ2WCB7aDLh5knmJcN7oetq9xPmIv59o8C53r8tPR7kzcXqoWXCVrPEeTWyNlLuneaXJ
##  8 kB3YkhnpJ2WCB7aDLh5knmJcN7oetq9xPmIv59o8C53r8tPR7kzcXqoWXCVrPEeTWyNlLuneaXJ
##  9 kB3YkhnpJ2WCB7aDLh5knmJcN7oetq9xPmIv59o8C53r8tPR7kzcXqoWXCVrPEeTWyNlLuneaXJ
## 10 kB3YkhnpJ2WCB7aDLh5knmJcN7oetq9xPmIv59o8C53r8tPR7kzcXqoWXCVrPEeTWyNlLuneaXJ
## # ... with 90 more rows, and 2 more variables: RUT_Decripted <dbl>,
## #   RUT <dbl>
…
