R - Statistics Manual
…
Vamos a usar la siguiente base de datos.

Cargamos librerias

if (!require('pacman')) install.packages('pacman'); library('pacman')
p_load(tidyverse, stringr)

6.1 Leer y guardar datos

6.1.1 Leer datos

raw_data = read_csv("Data/05-Manipulate_data/Manipulate_data_1.csv"); raw_data

## # A tibble: 30 x 11
##       ID `Columna basura`  Sexo  Edad   VI1   VI2   VI3 VI1_t VI2_t VI3_t
##    <int>            <chr> <int> <int> <int> <int> <int> <int> <int> <int>
##  1     1               xx     0    26    98    29    19  2398  7432   404
##  2     2               yy     0    33    15    35     4  4893  9918   394
##  3     3               xx     1    37     7     6     3  4099  6518   304
##  4     4               yy     1    19    59    32    14  1792  9476   149
##  5     5               zz     0    29    65    12    17  3280  3438    18
##  6     6               xx     1    34    43    17     7  1350   433   168
##  7     7               yy     0    21     8    32     1  3405  1265   413
##  8     8               zz     0    35    93    12    17  1014  8018    50
##  9     9               xx     0    23    81    42     8   516   548   491
## 10    10               yy     1    19    41    42    18  2232  6105   227
## # ... with 20 more rows, and 1 more variables: Composited_var <chr>
6.1.2 Guardar DB a archivo

write_csv(raw_data, "Data/05-Manipulate_data/Manipulate_saved_data.csv")

6.2 Ver output vs asignar output

Cuando usamos = o <- asignamos lo que ocurre a la derecha a la variable de la izquierda. En caso contrario, simplemente vemos el output, pero sin asignarlo.

# Creamos la variable temp para no sobreescribir raw_data
temp = raw_data
    
# Seleccionamos la columna "Columna basura", pero sin "guardar" el resultado
temp %>% select(`Columna basura`)

## # A tibble: 30 x 1
##    `Columna basura`
##               <chr>
##  1               xx
##  2               yy
##  3               xx
##  4               yy
##  5               zz
##  6               xx
##  7               yy
##  8               zz
##  9               xx
## 10               yy
## # ... with 20 more rows

# temp no ha cambiado
temp

## # A tibble: 30 x 11
##       ID `Columna basura`  Sexo  Edad   VI1   VI2   VI3 VI1_t VI2_t VI3_t
##    <int>            <chr> <int> <int> <int> <int> <int> <int> <int> <int>
##  1     1               xx     0    26    98    29    19  2398  7432   404
##  2     2               yy     0    33    15    35     4  4893  9918   394
##  3     3               xx     1    37     7     6     3  4099  6518   304
##  4     4               yy     1    19    59    32    14  1792  9476   149
##  5     5               zz     0    29    65    12    17  3280  3438    18
##  6     6               xx     1    34    43    17     7  1350   433   168
##  7     7               yy     0    21     8    32     1  3405  1265   413
##  8     8               zz     0    35    93    12    17  1014  8018    50
##  9     9               xx     0    23    81    42     8   516   548   491
## 10    10               yy     1    19    41    42    18  2232  6105   227
## # ... with 20 more rows, and 1 more variables: Composited_var <chr>

# Lo mismo de antes pero ahora con "temp =" lo que hace que guardemos el resultado en "temp" 
temp = temp %>% select(`Columna basura`)
  
# temp ha cambiado
temp

## # A tibble: 30 x 1
##    `Columna basura`
##               <chr>
##  1               xx
##  2               yy
##  3               xx
##  4               yy
##  5               zz
##  6               xx
##  7               yy
##  8               zz
##  9               xx
## 10               yy
## # ... with 20 more rows
…
# Filtramos aquellas respuestas que se han dado 2.5 desviaciones tipicas por encima o debajo de la media
raw_data %>% filter(
  VI1 < mean(VI1) + 2.5 * sd(VI1),
  VI1 > mean(VI1) - 2.5 * sd(VI1)
  ) 

## # A tibble: 30 x 11
##       ID `Columna basura`  Sexo  Edad   VI1   VI2   VI3 VI1_t VI2_t VI3_t
##    <int>            <chr> <int> <int> <int> <int> <int> <int> <int> <int>
##  1     1               xx     0    26    98    29    19  2398  7432   404
##  2     2               yy     0    33    15    35     4  4893  9918   394
##  3     3               xx     1    37     7     6     3  4099  6518   304
##  4     4               yy     1    19    59    32    14  1792  9476   149
##  5     5               zz     0    29    65    12    17  3280  3438    18
##  6     6               xx     1    34    43    17     7  1350   433   168
##  7     7               yy     0    21     8    32     1  3405  1265   413
##  8     8               zz     0    35    93    12    17  1014  8018    50
##  9     9               xx     0    23    81    42     8   516   548   491
## 10    10               yy     1    19    41    42    18  2232  6105   227
## # ... with 20 more rows, and 1 more variables: Composited_var <chr>
…
6.3.2 Ordenar DB

#raw_data %>% arrange(desc(Edad))
raw_data %>% arrange(Edad, Sexo) 

## # A tibble: 30 x 11
##       ID `Columna basura`  Sexo  Edad   VI1   VI2   VI3 VI1_t VI2_t VI3_t
##    <int>            <chr> <int> <int> <int> <int> <int> <int> <int> <int>
##  1     4               yy     1    19    59    32    14  1792  9476   149
##  2    10               yy     1    19    41    42    18  2232  6105   227
##  3    13               yy     0    20    24    41     0  4680   192   195
##  4    28               yy     0    20    25     2     2   964  1484    35
##  5    15               xx     1    20    61     1    15  2140  3305   168
##  6    18               xx     1    20    65     5    13  4846  3906    13
##  7     7               yy     0    21     8    32     1  3405  1265   413
##  8    26               zz     0    21    83    26     6  3305  6470   318
##  9    16               yy     1    21    99     3    16   679  7278   401
## 10    27               xx     1    22    68    44     2   537  6455    88
## # ... with 20 more rows, and 1 more variables: Composited_var <chr>

6.3.3 Seleccionar variables

# Seleccionamos varias columnas
raw_data %>% select(ID, Sexo, Edad, VI1)

## # A tibble: 30 x 4
##       ID  Sexo  Edad   VI1
##    <int> <int> <int> <int>
##  1     1     0    26    98
##  2     2     0    33    15
##  3     3     1    37     7
##  4     4     1    19    59
##  5     5     0    29    65
##  6     6     1    34    43
##  7     7     0    21     8
##  8     8     0    35    93
##  9     9     0    23    81
## 10    10     1    19    41
## # ... with 20 more rows

# Podemos usar el número de columna    
raw_data %>% select(1,3:4)

## # A tibble: 30 x 3
##       ID  Sexo  Edad
##    <int> <int> <int>
##  1     1     0    26
##  2     2     0    33
##  3     3     1    37
##  4     4     1    19
##  5     5     0    29
##  6     6     1    34
##  7     7     0    21
##  8     8     0    35
##  9     9     0    23
## 10    10     1    19
## # ... with 20 more rows
…
FROM https://xkcd.com/208/

Nosotros usaremos la versión para todos los públicos, en la que simplemente indicaremos un fragmento de texto que buscar en los títulos de las columnas de nuestro data frame.

# Seleccionamos las columnas que nos interesan usando matches()
datos = raw_data %>% select(ID, Sexo, Edad, matches("VI"))
   
#Vemos datos
datos

## # A tibble: 30 x 9
##       ID  Sexo  Edad   VI1   VI2   VI3 VI1_t VI2_t VI3_t
##    <int> <int> <int> <int> <int> <int> <int> <int> <int>
##  1     1     0    26    98    29    19  2398  7432   404
##  2     2     0    33    15    35     4  4893  9918   394
##  3     3     1    37     7     6     3  4099  6518   304
##  4     4     1    19    59    32    14  1792  9476   149
##  5     5     0    29    65    12    17  3280  3438    18
##  6     6     1    34    43    17     7  1350   433   168
##  7     7     0    21     8    32     1  3405  1265   413
##  8     8     0    35    93    12    17  1014  8018    50
##  9     9     0    23    81    42     8   516   548   491
## 10    10     1    19    41    42    18  2232  6105   227
## # ... with 20 more rows

6.3.4 Renombrar variables

# Renombramos columna X. En este caso, como el nombre de columna contiene espacios, tenemos que usar ``
raw_data %>% rename(Columna_basura = `Columna basura`)

## # A tibble: 30 x 11
##       ID Columna_basura  Sexo  Edad   VI1   VI2   VI3 VI1_t VI2_t VI3_t
##    <int>          <chr> <int> <int> <int> <int> <int> <int> <int> <int>
##  1     1             xx     0    26    98    29    19  2398  7432   404
##  2     2             yy     0    33    15    35     4  4893  9918   394
##  3     3             xx     1    37     7     6     3  4099  6518   304
##  4     4             yy     1    19    59    32    14  1792  9476   149
##  5     5             zz     0    29    65    12    17  3280  3438    18
##  6     6             xx     1    34    43    17     7  1350   433   168
##  7     7             yy     0    21     8    32     1  3405  1265   413
##  8     8             zz     0    35    93    12    17  1014  8018    50
##  9     9             xx     0    23    81    42     8   516   548   491
## 10    10             yy     1    19    41    42    18  2232  6105   227
## # ... with 20 more rows, and 1 more variables: Composited_var <chr>

Renombrado avanzado

Rename using the position of the column

raw_data %>% rename(second_column = !!names(.[2]), first_column = !!names(.[1]))

## # A tibble: 30 x 11
##    first_column second_column  Sexo  Edad   VI1   VI2   VI3 VI1_t VI2_t
##           <int>         <chr> <int> <int> <int> <int> <int> <int> <int>
##  1            1            xx     0    26    98    29    19  2398  7432
##  2            2            yy     0    33    15    35     4  4893  9918
##  3            3            xx     1    37     7     6     3  4099  6518
##  4            4            yy     1    19    59    32    14  1792  9476
##  5            5            zz     0    29    65    12    17  3280  3438
##  6            6            xx     1    34    43    17     7  1350   433
##  7            7            yy     0    21     8    32     1  3405  1265
##  8            8            zz     0    35    93    12    17  1014  8018
##  9            9            xx     0    23    81    42     8   516   548
## 10           10            yy     1    19    41    42    18  2232  6105
## # ... with 20 more rows, and 2 more variables: VI3_t <int>,
## #   Composited_var <chr>

6.3.5 Separate contents of a single variable

raw_data %>% separate(Composited_var, c("First", "Second"), sep = "_")

## # A tibble: 30 x 12
##       ID `Columna basura`  Sexo  Edad   VI1   VI2   VI3 VI1_t VI2_t VI3_t
##  * <int>            <chr> <int> <int> <int> <int> <int> <int> <int> <int>
##  1     1               xx     0    26    98    29    19  2398  7432   404
##  2     2               yy     0    33    15    35     4  4893  9918   394
##  3     3               xx     1    37     7     6     3  4099  6518   304
##  4     4               yy     1    19    59    32    14  1792  9476   149
##  5     5               zz     0    29    65    12    17  3280  3438    18
##  6     6               xx     1    34    43    17     7  1350   433   168
##  7     7               yy     0    21     8    32     1  3405  1265   413
##  8     8               zz     0    35    93    12    17  1014  8018    50
##  9     9               xx     0    23    81    42     8   516   548   491
## 10    10               yy     1    19    41    42    18  2232  6105   227
## # ... with 20 more rows, and 2 more variables: First <chr>, Second <chr>

6.3.6 Wide to Long format

Cuando tenemos una condición por columna (como en la tabla de arriba) pero queremos los valores de las condiciones en una columna y los valores de la VD en otra:

data_long_RAW = datos %>% 
  gather(Condition, VD, 4:6, factor_key = TRUE, convert = F) %>% 
  gather(Condition_t, VD_t, 4:6, factor_key = TRUE, convert = F)
    
data_long_RAW %>% select(-Condition_t) %>% arrange(ID)

## # A tibble: 270 x 6
##       ID  Sexo  Edad Condition    VD  VD_t
##    <int> <int> <int>    <fctr> <int> <int>
##  1     1     0    26       VI1    98  2398
##  2     1     0    26       VI2    29  2398
##  3     1     0    26       VI3    19  2398
##  4     1     0    26       VI1    98  7432
##  5     1     0    26       VI2    29  7432
##  6     1     0    26       VI3    19  7432
##  7     1     0    26       VI1    98   404
##  8     1     0    26       VI2    29   404
##  9     1     0    26       VI3    19   404
## 10     2     0    33       VI1    15  4893
## # ... with 260 more rows

6.3.7 Long to wide

Cuando tenemos unos datos en formato long y queremos formato wide.

data_long_RAW %>%
  spread(Condition, VD) %>%
  spread(Condition_t, VD_t) 

## # A tibble: 30 x 9
##       ID  Sexo  Edad   VI1   VI2   VI3 VI1_t VI2_t VI3_t
##  * <int> <int> <int> <int> <int> <int> <int> <int> <int>
##  1     1     0    26    98    29    19  2398  7432   404
##  2     2     0    33    15    35     4  4893  9918   394
##  3     3     1    37     7     6     3  4099  6518   304
##  4     4     1    19    59    32    14  1792  9476   149
##  5     5     0    29    65    12    17  3280  3438    18
##  6     6     1    34    43    17     7  1350   433   168
##  7     7     0    21     8    32     1  3405  1265   413
##  8     8     0    35    93    12    17  1014  8018    50
##  9     9     0    23    81    42     8   516   548   491
## 10    10     1    19    41    42    18  2232  6105   227
## # ... with 20 more rows
…
6.3.9 Eliminar variables

# Eliminamos columna X
data_long_RAW = data_long_RAW %>% select(-Condition_t)

6.3.10 Crear nuevas variables:

6.3.10.1 A partir de criterios logicos

data_long_RAW %>% mutate(Viejuno = Edad > 30)

## # A tibble: 270 x 7
##       ID  Sexo  Edad Condition    VD  VD_t Viejuno
##    <int> <int> <int>    <fctr> <int> <int>   <lgl>
##  1     1     0    26       VI1    98  2398   FALSE
##  2     2     0    33       VI1    15  4893    TRUE
##  3     3     1    37       VI1     7  4099    TRUE
##  4     4     1    19       VI1    59  1792   FALSE
##  5     5     0    29       VI1    65  3280   FALSE
##  6     6     1    34       VI1    43  1350    TRUE
##  7     7     0    21       VI1     8  3405   FALSE
##  8     8     0    35       VI1    93  1014    TRUE
##  9     9     0    23       VI1    81   516   FALSE
## 10    10     1    19       VI1    41  2232   FALSE
## # ... with 260 more rows

6.3.10.2 Transformando otras variables

data_long_RAW %>% mutate(RT_log = log(VD_t))

## # A tibble: 270 x 7
##       ID  Sexo  Edad Condition    VD  VD_t   RT_log
##    <int> <int> <int>    <fctr> <int> <int>    <dbl>
##  1     1     0    26       VI1    98  2398 7.782390
##  2     2     0    33       VI1    15  4893 8.495561
##  3     3     1    37       VI1     7  4099 8.318498
##  4     4     1    19       VI1    59  1792 7.491088
##  5     5     0    29       VI1    65  3280 8.095599
##  6     6     1    34       VI1    43  1350 7.207860
##  7     7     0    21       VI1     8  3405 8.133000
##  8     8     0    35       VI1    93  1014 6.921658
##  9     9     0    23       VI1    81   516 6.246107
## 10    10     1    19       VI1    41  2232 7.710653
## # ... with 260 more rows

6.3.11 Recodificamos datos

6.3.11.1 Cambiamos el tipo de datos

TODO: masivamente, todos los integer a algo

# Cambiamos a Character
data_long_RAW %>% mutate(Edad = as.character(Edad))

## # A tibble: 270 x 6
##       ID  Sexo  Edad Condition    VD  VD_t
##    <int> <int> <chr>    <fctr> <int> <int>
##  1     1     0    26       VI1    98  2398
##  2     2     0    33       VI1    15  4893
##  3     3     1    37       VI1     7  4099
##  4     4     1    19       VI1    59  1792
##  5     5     0    29       VI1    65  3280
##  6     6     1    34       VI1    43  1350
##  7     7     0    21       VI1     8  3405
##  8     8     0    35       VI1    93  1014
##  9     9     0    23       VI1    81   516
## 10    10     1    19       VI1    41  2232
## # ... with 260 more rows

# Cambiamos a Integer
data_long_RAW %>% mutate(Edad = as.integer(Edad))

## # A tibble: 270 x 6
##       ID  Sexo  Edad Condition    VD  VD_t
##    <int> <int> <int>    <fctr> <int> <int>
##  1     1     0    26       VI1    98  2398
##  2     2     0    33       VI1    15  4893
##  3     3     1    37       VI1     7  4099
##  4     4     1    19       VI1    59  1792
##  5     5     0    29       VI1    65  3280
##  6     6     1    34       VI1    43  1350
##  7     7     0    21       VI1     8  3405
##  8     8     0    35       VI1    93  1014
##  9     9     0    23       VI1    81   516
## 10    10     1    19       VI1    41  2232
## # ... with 260 more rows

6.3.11.2 Recodificamos los valores

data_long_RAW %>% mutate(Edad2 = 
                           ifelse( Edad > 30, "Viejuno", 
                           ifelse( Edad < 30, "Pipiolo", NA)))

## # A tibble: 270 x 7
##       ID  Sexo  Edad Condition    VD  VD_t   Edad2
##    <int> <int> <int>    <fctr> <int> <int>   <chr>
##  1     1     0    26       VI1    98  2398 Pipiolo
##  2     2     0    33       VI1    15  4893 Viejuno
##  3     3     1    37       VI1     7  4099 Viejuno
##  4     4     1    19       VI1    59  1792 Pipiolo
##  5     5     0    29       VI1    65  3280 Pipiolo
##  6     6     1    34       VI1    43  1350 Viejuno
##  7     7     0    21       VI1     8  3405 Pipiolo
##  8     8     0    35       VI1    93  1014 Viejuno
##  9     9     0    23       VI1    81   516 Pipiolo
## 10    10     1    19       VI1    41  2232 Pipiolo
## # ... with 260 more rows

data_long_RAW %>% mutate(Edad2 = 
                           case_when(
                             .$Edad > 30 ~ "Viejuno",
                             .$Edad < 30 ~ "Pipiolo"))

## # A tibble: 270 x 7
##       ID  Sexo  Edad Condition    VD  VD_t   Edad2
##    <int> <int> <int>    <fctr> <int> <int>   <chr>
##  1     1     0    26       VI1    98  2398 Pipiolo
##  2     2     0    33       VI1    15  4893 Viejuno
##  3     3     1    37       VI1     7  4099 Viejuno
##  4     4     1    19       VI1    59  1792 Pipiolo
##  5     5     0    29       VI1    65  3280 Pipiolo
##  6     6     1    34       VI1    43  1350 Viejuno
##  7     7     0    21       VI1     8  3405 Pipiolo
##  8     8     0    35       VI1    93  1014 Viejuno
##  9     9     0    23       VI1    81   516 Pipiolo
## 10    10     1    19       VI1    41  2232 Pipiolo
## # ... with 260 more rows
…
Manipulate_data_2.

Manipulate_data_3.

# Leemos las bases de datos
datos1 = read_csv("Data/05-Manipulate_data/Manipulate_data_2.csv"); datos1

## Parsed with column specification:
## cols(
##   ID = col_integer(),
##   Sexo = col_integer(),
##   Edad = col_integer()
## )

## # A tibble: 30 x 3
##       ID  Sexo  Edad
##    <int> <int> <int>
##  1     1     0    26
##  2     2     0    33
##  3     3     1    37
##  4     4     1    19
##  5     5     0    29
##  6     6     1    34
##  7     7     0    21
##  8     8     0    35
##  9     9     0    23
## 10    10     1    19
## # ... with 20 more rows

datos2 = read_csv("Data/05-Manipulate_data/Manipulate_data_3.csv"); datos2

## Parsed with column specification:
## cols(
##   ID = col_integer(),
##   VI1 = col_integer(),
##   VI2 = col_integer(),
##   VI3 = col_integer(),
##   VI1_t = col_integer(),
##   VI2_t = col_integer(),
##   VI3_t = col_integer()
## )

## # A tibble: 30 x 7
##       ID   VI1   VI2   VI3 VI1_t VI2_t VI3_t
##    <int> <int> <int> <int> <int> <int> <int>
##  1     1    98    29    19  2398  7432   404
##  2     2    15    35     4  4893  9918   394
##  3     3     7     6     3  4099  6518   304
##  4     4    59    32    14  1792  9476   149
##  5     5    65    12    17  3280  3438    18
##  6     6    43    17     7  1350   433   168
##  7     7     8    32     1  3405  1265   413
##  8     8    93    12    17  1014  8018    50
##  9     9    81    42     8   516   548   491
## 10    10    41    42    18  2232  6105   227
## # ... with 20 more rows
…
