R - Statistics Manual
…
url <- "http://www.shanghairanking.com/ARWU2016.html"
population <- url %>%
  read_html() %>%
  html_nodes(xpath='//*[@id="UniversityRanking"]') %>%
  html_table(fill = TRUE)
  population <- population[[1]]

  # Rename columns 
  colnames(population) = c("World_Rank", "Institution", "Country/Region", "National_Rank", "Total_Score", "Alumni", "Awards", "Higly_Cited_Researchers", "Nature_Science", "Publications", "PCP")

write_csv(population, "Data/15_Extract_tables_web/15_Extract_tables_web_Shanghai_2016.csv")

population %>% dplyr::select(-`Country/Region`) %>% as_tibble()

## # A tibble: 500 x 10
##    World_Rank Institution National_Rank Total_Score Alumni Awards
##    <chr>      <chr>       <chr>               <dbl>  <dbl>  <dbl>
##  1 1          Harvard Un… 1                   100    100    100  
##  2 2          Stanford U… 2                    74.7   42.9   89.6
##  3 3          University… 3                    70.1   65.1   79.4
##  4 4          University… 1                    69.6   78.3   96.6
##  5 5          Massachuse… 4                    69.2   69.4   80.7
##  6 6          Princeton … 5                    62     53.3   98  
##  7 7          University… 2                    58.9   49.7   54.9
##  8 8          California… 6                    57.8   51     66.7
##  9 9          Columbia U… 7                    56.7   63.5   65.9
## 10 10         University… 8                    54.2   59.8   86.3
## # ... with 490 more rows, and 4 more variables:
## #   Higly_Cited_Researchers <dbl>, Nature_Science <dbl>,
## #   Publications <dbl>, PCP <dbl>
…
url <- "http://www.shanghairanking.com/ARWU2016.html"
population <- url %>%
  read_html() %>%
  html_nodes(xpath='//*[@id="UniversityRanking"]') %>%
  html_table(fill = TRUE)
  population <- population[[1]]

  # Rename columns 
  colnames(population) = c("World_Rank", "Institution", "Country/Region", "National_Rank", "Total_Score", "Alumni", "Awards", "Higly_Cited_Researchers", "Nature_Science", "Publications", "PCP")

# write_csv(population, "Data/15_Extract_tables_web/15_Extract_tables_web_Shanghai_2016.csv")

population %>% dplyr::select(-`Country/Region`) %>% as_tibble()

## # A tibble: 500 x 10
##    World_Rank Institution National_Rank Total_Score Alumni Awards
##    <chr>      <chr>       <chr>               <dbl>  <dbl>  <dbl>
##  1 1          Harvard Un… 1                   100    100    100  
##  2 2          Stanford U… 2                    74.7   42.9   89.6
##  3 3          University… 3                    70.1   65.1   79.4
##  4 4          University… 1                    69.6   78.3   96.6
##  5 5          Massachuse… 4                    69.2   69.4   80.7
##  6 6          Princeton … 5                    62     53.3   98  
##  7 7          University… 2                    58.9   49.7   54.9
##  8 8          California… 6                    57.8   51     66.7
##  9 9          Columbia U… 7                    56.7   63.5   65.9
## 10 10         University… 8                    54.2   59.8   86.3
## # ... with 490 more rows, and 4 more variables:
## #   Higly_Cited_Researchers <dbl>, Nature_Science <dbl>,
## #   Publications <dbl>, PCP <dbl>
…
