R - Statistics Manual
…
DV dicotómica
…
…
…

Cargamos librerias y leemos datos

# Cargamos librerias
if (!require('pacman')) install.packages('pacman'); library('pacman')
p_load(tidyverse, yarrr)  
    
# Leemos datos y echamos un vistazo
datos = read_csv("Data/06_Visualize_data/Visualize_data.csv"); datos  

## # A tibble: 103 x 7
##       ID Genero  Edad Educacion FollowUP condition PPV_DECLARED
##    <int>  <int> <int>     <int>    <int>     <chr>        <int>
##  1     1      1    47         8       80 PPV_Cond1           99
##  2     2      2    21         6       90 PPV_Cond1           99
##  3     3      2    29         6       10 PPV_Cond1           99
##  4     4      2    27         7       75 PPV_Cond1            1
##  5     5      1    29         5       35 PPV_Cond1           24
##  6     6      2    28         6       14 PPV_Cond1           99
##  7     7      2    27         4        2 PPV_Cond1           99
##  8     8      2    55         6       89 PPV_Cond1           99
##  9     9      2    28         6        6 PPV_Cond1           99
## 10    10      1    46         5        0 PPV_Cond1            1
## # ... with 93 more rows
…
