10 Estadistica inferencial | R - Statistics Manual
…
#Muestra las primeras 10 observaciones
df

## # A tibble: 237 x 10
##       Id AccuracyIz Moral   Tom Empatia  Sexo  Edad AccuracyDer AdapSoc FunEjec
##    <dbl>      <dbl> <dbl> <dbl>   <dbl> <dbl> <dbl>       <dbl>   <dbl>   <dbl>
##  1     1         34     1    29      63     0    62          13      40      25
##  2     2         13    NA    23      55     0    53           8      43     175
##  3     3         20     1    26      27     0    18          14      38      18
##  4     4         24     1    21      33     0    40          14      48      16
##  5     5         20     1    18      35     1    65          15      48     175
##  6     6          2     0    23      38    NA    NA          12      35     205
##  7     7         13     1    19      38     0    56           5      16       8
##  8     8         27     1    15      42     1    70           8      41      21
##  9     9         37     1    23      36     0    43          23      38      26
## 10    10         27     0    20      51     1    52           9      24       8
## # … with 227 more rows
…
#Importar dataframe
df = read_csv("Data/08-Data_analysis/ANOVA_2.csv")

## 
## ── Column specification ────────────────────────────────────────────────────────────────────────────────────────────────────────────────────────────────────────────────────────────────────────────────────────────────────────────────────────────────────────────────────────
## cols(
##   Metodo = col_double(),
##   Nota = col_double()
## )

#Muestra las primeras 10 observaciones
df

## # A tibble: 30 x 2
##    Metodo  Nota
##     <dbl> <dbl>
##  1      1    50
##  2      1    45
##  3      1    48
##  4      1    47
##  5      1    45
##  6      1    49
##  7      1    50
##  8      1    54
##  9      1    57
## 10      1    55
## # … with 20 more rows
…
#Importar dataframe
df = read_csv("Data/08-Data_analysis/ANOVA_3.csv")

## 
## ── Column specification ────────────────────────────────────────────────────────────────────────────────────────────────────────────────────────────────────────────────────────────────────────────────────────────────────────────────────────────────────────────────────────
## cols(
##   Sexo = col_double(),
##   Alcohol = col_double(),
##   Atractivo = col_double()
## )

#Muestra las primeras 10 observaciones
df

## # A tibble: 32 x 3
##     Sexo Alcohol Atractivo
##    <dbl>   <dbl>     <dbl>
##  1     1       0        65
##  2     1       0        70
##  3     1       0        60
##  4     1       0        60
##  5     1       0        60
##  6     1       0        55
##  7     1       0        60
##  8     1       0        55
##  9     1       1        55
## 10     1       1        65
## # … with 22 more rows
…
Import data

We use the following dataset.

#Import to variable "datos"
datos = read_excel("Data/08-Data_analysis/ANOVA_repeated_measures.xlsx") %>% 
  dplyr::mutate(ID = 1:n())

datos

## # A tibble: 29 x 9
##      ENDObch   ENDOacm    ENDObcm   ENDOach    EXObch    EXOacm      EXObcm    EXOach    ID
##        <dbl>     <dbl>      <dbl>     <dbl>     <dbl>     <dbl>       <dbl>     <dbl> <int>
##  1 -0.0135    0.00796  -0.00172    0.000124  0.00333  -0.000877  0.00320    -0.00277      1
##  2 -0.000757  0.000135  0.0109    -0.00440   0.0225   -0.0255    0.00522    -0.00668      2
##  3 -0.00216   0.00189   0.00140    0.000244 -0.000969 -0.000520 -0.00143     0.00189      3
##  4 -0.00213   0.00170   0.00795   -0.000956  0.00196   0.000104 -0.00345     0.000901     4
##  5 -0.00141  -0.000902  0.00116   -0.000691 -0.000855 -0.00173  -0.0136      0.00631      5
##  6  0.00317  -0.00163   0.00140   -0.00354  -0.00176  -0.00150  -0.00000849  0.00357      6
##  7 -0.00344  -0.000572 -0.00702    0.00340   0.0109   -0.00572   0.00924    -0.00199      7
##  8 -0.00381   0.00549   0.000432  -0.00336   0.00984  -0.0110   -0.00483     0.00447      8
##  9 -0.000304 -0.000464 -0.0107     0.00758  -0.00467   0.00479  -0.00555     0.00364      9
## 10 -0.00160   0.000849  0.0000695  0.000265  0.00428  -0.00372   0.00597     0.00157     10
## # … with 19 more rows
…
datos_long

## # A tibble: 232 x 6
##       ID Condicion        VD VI1   VI2   VI3  
##    <int> <fct>         <dbl> <fct> <fct> <fct>
##  1     1 ENDObch   -0.0135   END   bc    h    
##  2     2 ENDObch   -0.000757 END   bc    h    
##  3     3 ENDObch   -0.00216  END   bc    h    
##  4     4 ENDObch   -0.00213  END   bc    h    
##  5     5 ENDObch   -0.00141  END   bc    h    
##  6     6 ENDObch    0.00317  END   bc    h    
##  7     7 ENDObch   -0.00344  END   bc    h    
##  8     8 ENDObch   -0.00381  END   bc    h    
##  9     9 ENDObch   -0.000304 END   bc    h    
## 10    10 ENDObch   -0.00160  END   bc    h    
## # … with 222 more rows
…
