9 Estadistica descriptiva | R - Statistics Manual
…
Vamos a usar la siguiente base de datos.

Cargamos librerias y leemos los datos

if (!require('findviews')) install.packages('findviews'); library('findviews')
if (!require('dplyr')) install.packages('dplyr'); library('dplyr')
if (!require('readr')) install.packages('readr'); library('readr')

if (!require('gt')) install.packages('gt'); library('gt')
if (!require('gtsummary')) install.packages('gtsummary'); library('gtsummary')

datos = read_csv(here::here("Data/07_Descriptive_statistics/Descriptive_statistics.csv")); datos

## # A tibble: 261 x 6
##       ID  Sexo  Edad Condition    VD  VD_t
##    <dbl> <dbl> <dbl> <chr>     <dbl> <dbl>
##  1     2     0    33 VI1          15  4893
##  2     2     0    33 VI1          15  9918
##  3     2     0    33 VI1          15   394
##  4     3     1    37 VI1           7  4099
##  5     3     1    37 VI1           7  6518
##  6     3     1    37 VI1           7   304
##  7     4     1    19 VI1          59  1792
##  8     4     1    19 VI1          59  9476
##  9     4     1    19 VI1          59   149
## 10     5     0    29 VI1          65  3280
## # … with 251 more rows
…
