13 Experimental design | R - Statistics Manual
…
# Encriptamos
data = data %>% 
  dplyr::rowwise() %>% 
  mutate(RUT_Encripted = encode(RUT, h))

# Desencriptamos
data = data %>% 
  dplyr::rowwise() %>% 
  mutate(RUT_Decripted = decode(RUT_Encripted, h))

# Mostramos los resultados
data %>% select(RUT_Encripted, RUT_Decripted, RUT)

## # A tibble: 100 x 3
## # Rowwise: 
##    RUT_Encripted RUT_Decripted     RUT
##    <chr>                 <dbl>   <dbl>
##  1 8RExa               2832261 2832261
##  2 l9aMNQ              7583306 7583306
##  3 WqOm93              3955537 3955537
##  4 xKXQoL              8587857 8587857
##  5 aporP               2879598 2879598
##  6 EOL3By              9179372 9179372
##  7 6g79nq              5208890 5208890
##  8 LK2er               1422724 1422724
##  9 jr47mN              5975451 5975451
## 10 BQ1jBQ              9688978 9688978
## # … with 90 more rows
…
