R - Statistics Manual
…
dataset = read_csv("Data/10-Pre_processing/RT_filtering.csv")

## Parsed with column specification:
## cols(
##   ID = col_integer(),
##   Dem_Gender = col_integer(),
##   Dem_Age = col_integer(),
##   Time = col_double(),
##   Formato = col_character(),
##   Accuracy = col_integer()
## )

dataset

## # A tibble: 200 x 6
##       ID Dem_Gender Dem_Age  Time Formato Accuracy
##    <int>      <int>   <int> <dbl> <chr>      <int>
##  1     1          2      37  2.62 PR             0
##  2     2          2      32 23.3  PR             0
##  3     3          1     100  6.9  FN             0
##  4     4          2      34 12.9  FN             1
##  5     5          1      29 38.9  FN             1
##  6     6          2      25 42.5  FN             1
##  7     7          1      27  3.29 PR             0
##  8     8          1      29 16.4  PR             0
##  9     9          1      30 60.8  PR             1
## 10    10          2      28 26.2  PR             0
## # ... with 190 more rows

Filter_FUN(dataset, Time)

## **** Datos filtrados a partir de la columna Time :  20 / 200 filas eliminadas ***

DB_Filtered

## # A tibble: 180 x 7
##       ID Dem_Gender Dem_Age  Time Formato Accuracy Column_LOG
##    <int>      <int>   <int> <dbl> <chr>      <int>      <dbl>
##  1     1          2      37  2.62 PR             0      0.962
##  2     2          2      32 23.3  PR             0      3.15 
##  3     3          1     100  6.9  FN             0      1.93 
##  4     4          2      34 12.9  FN             1      2.56 
##  5     5          1      29 38.9  FN             1      3.66 
##  6     6          2      25 42.5  FN             1      3.75 
##  7     7          1      27  3.29 PR             0      1.19 
##  8     8          1      29 16.4  PR             0      2.80 
##  9     9          1      30 60.8  PR             1      4.11 
## 10    10          2      28 26.2  PR             0      3.26 
## # ... with 170 more rows
…
